@startuml startGame
== Initialisierung durch User ==
[o-> RestModel++ : startGame(2)
RestModel -> RestModel++ : register()
RestModel -> RestModel++ : lookupCoordinator()
RestModel ->] : http lookup @ name service
deactivate RestModel
RestModel ->] : PUT /registration(2) @ coordinator
opt result == 410 or timeout
    RestModel ->? : http register @ name service
    RestModel ->? : http lookup @ name service
    opt result == isOwnAddress
        RestModel -> RestModel: startCoordinator()
        RestModel -> RestModel++: handleRegistrationRequest(2, 0, ownAddress)
        RestModel -> RestModel: registrationsAccepted()
        RestModel -> RestModel++: registerPlayers(2, 0, ownAddress)
        deactivate RestModel
        deactivate RestModel
    else
        RestModel ->? : http PUT /registration(2) @ coordinator
    end
else result == 406
    RestModel -> RestModel: closeApplication()
    destroy RestModel
    note right: Another coordinator doesn't\n have enough\nspace for us, go away
end
deactivate RestModel

== Registrierung eines anderen Superpeers an unseren Coordinator ==
[o-> RestModel++ : http PUT /registration {2, port}
RestModel -> RestModel++: handleRegistrationRequest(2, port, requestAddress)
RestModel -> RestModel: registrationsAccepted()
RestModel -> RestModel++: registerPlayers(2, port, requestAddress)
deactivate RestModel
note right: Created 2 new IDs and\nregisters them to this superpeer
RestModel -> RestModel++: checkPeerCount();
deactivate RestModel
deactivate RestModel
[<-- RestModel : http 200 OK
deactivate RestModel

== Coordinator stellt fest, dass genug User registriert sind ==
RestModel -> RestModel++: checkPeerCount();
RestModel -> RestModel++: finishRegistration();
RestModel -> RestModel++: createConfiguration();
RestModel -> RestModel++: sendConfiguration();
[<-- RestModel: http PUT /game {config data}
deactivate RestModel
RestModel -> ITronModel++--: startGame(totalPlayerCount);
deactivate RestModel
deactivate RestModel
deactivate ITronModel

== Erfolgreich als Peer beim Koordinator registriert ==
[o--> RestModel++:http PUT /game {config data}
RestModel -> RestModel: buildIdMap(configData)
RestModel -> ITronModel++--: startGame(totalPlayerCount)
@enduml

@startuml setLightCycleTurn intern
[o-> RestModel++ : setLightCycleTurn(LEFT, 2)
RestModel -> RestModel: getLightCycleId(2)
RestModel -> RestModel++: sendSteering(ID, LEFT)
[<-- RestModel: http PUT /steering @ restClients
deactivate RestModel
RestModel -> TronModel: setLightCycleTurn(LEFT, ID)
@enduml

@startuml setLightCycleTurn extern
[o-> RestModel++: http PUT /steering {ID, RIGHT}
RestModel -> TronModel: setLightCycleTurn(RIGHT, ID)
@enduml