@startuml View
title Spielstart

participant StartScreen
participant CountdownScreen
participant ITronView
participant ITronViewWrapper
== Trigger ==
[o-> StartScreen++: onStartButtonClicked()
StartScreen -> TronViewWrapper++: onGameStarted(playerCount)
TronViewWrapper ->o]: onGameStarted(playerCount)
deactivate StartScreen
deactivate TronViewWrapper

== Loading ==
TronViewWrapper <-o]: onWaiting()
activate TronViewWrapper
TronViewWrapper -> ITronView++: hideOverlays()
deactivate ITronView
TronViewWrapper -> ITronView++: showOverlay("loading")
deactivate ITronView
deactivate TronViewWrapper

== Countdown ==
TronViewWrapper <-o]: onCountdown(number)
activate TronViewWrapper
TronViewWrapper -> CountdownScreen++: showNumber(number)
deactivate CountdownScreen
TronViewWrapper -> ITronView++: hideOverlays()
deactivate ITronView
TronViewWrapper -> ITronView++: showOverlay("countdown")
deactivate ITronView
deactivate TronViewWrapper

== Game Start ==
TronViewWrapper <-o]: onGameStart()
activate TronViewWrapper
TronViewWrapper -> ITronView++: hideOverlays()
deactivate ITronView
deactivate TronViewWrapper

@enduml
