@startuml View
!pragma teoz true
title UC 2: Fahrzeug steuern

[o<-- TronViewWrapper++: onKeyPressed(KeyCode)
deactivate ITronView
deactivate TronViewWrapper

[o--> TronViewWrapper++: onUpdate(List<Player> player)
loop player.size()
    TronViewWrapper -> ITronView++: draw(player.coordinates, player.color)
    deactivate ITronView
end
deactivate ITronView
deactivate TronViewWrapper

@enduml